alu/sim/test_adder.log
# vsim -debugDB -l test_adder.log -voptargs="+acc" -assertdebug -c test_bench -do "log -r /*;run -all;" 
# Start time: 13:54:55 on Jun 14,2025
# ** Note: (vsim-8009) Loading existing optimized design _opt
# //  Questa Intel Starter FPGA Edition-64
# //  Version 2023.3 linux_x86_64 Jul 17 2023
# //
# //  Copyright 1991-2023 Mentor Graphics Corporation
# //  All Rights Reserved.
# //
# //  QuestaSim and its associated documentation contain trade
# //  secrets and commercial or financial information that are the property of
# //  Mentor Graphics Corporation and are privileged, confidential,
# //  and exempt from disclosure under the Freedom of Information Act,
# //  5 U.S.C. Section 552. Furthermore, this information
# //  is prohibited from disclosure under the Trade Secrets Act,
# //  18 U.S.C. Section 1905.
# //
# Loading work.test_bench(fast)
# Loading work.alu(fast)
# ** Note: (vsim-8716) Reusing existing debug database vsim.dbg.
# log -r /*
# run -all
# --------------- Case:   0 ctrl = 010 a =  35, b =  50 --------------
# a + b = 01010101, y = 01010101
# --------------- Case:   1 ctrl = 010 a =  29, b = 184 --------------
# a + b = 11010101, y = 11010101
# --------------- Case:   2 ctrl = 010 a = 192, b = 172 --------------
# a + b = 01101100, y = 01101100
# --------------- Case:   3 ctrl = 101 a =  28, b = 190 --------------
# --------------- Case:   4 ctrl = 001 a = 216, b =  73 --------------
# a | b = 11011001, y = 11011001
# --------------- Case:   5 ctrl = 000 a = 211, b = 210 --------------
# a & b = 11010010, y = 11010010
# --------------- Case:   6 ctrl = 100 a =  66, b =  51 --------------
# --------------- Case:   7 ctrl = 111 a = 244, b =  94 --------------
# --------------- Case:   8 ctrl = 010 a = 218, b =  20 --------------
# a + b = 11101110, y = 11101110
# --------------- Case:   9 ctrl = 000 a = 241, b = 147 --------------
# a & b = 10010001, y = 10010001
# --------------- Case:  10 ctrl = 001 a = 254, b =  30 --------------
# a | b = 11111110, y = 11111110
# --------------- Case:  11 ctrl = 000 a = 213, b = 130 --------------
# a & b = 10000000, y = 10000000
# --------------- Case:  12 ctrl = 001 a =  20, b = 234 --------------
# a | b = 11111110, y = 11111110
# --------------- Case:  13 ctrl = 110 a = 239, b = 227 --------------
# a - b = 00001100, y = 00001100
# --------------- Case:  14 ctrl = 111 a = 216, b =  39 --------------
# --------------- Case:  15 ctrl = 000 a =  73, b = 170 --------------
# a & b = 00001000, y = 00001000
# --------------- Case:  16 ctrl = 101 a = 175, b = 253 --------------
# --------------- Case:  17 ctrl = 110 a = 128, b = 154 --------------
# a - b = 11100110, y = 11100110
# --------------- Case:  18 ctrl = 011 a =  97, b = 230 --------------
# --------------- Case:  19 ctrl = 010 a =  84, b = 239 --------------
# a + b = 01000011, y = 01000011
# --------------- Case:  20 ctrl = 001 a = 186, b =  58 --------------
# a | b = 10111010, y = 10111010
# --------------- Case:  21 ctrl = 111 a = 131, b = 113 --------------
# --------------- Case:  22 ctrl = 000 a =  95, b = 146 --------------
# a & b = 00010010, y = 00010010
# --------------- Case:  23 ctrl = 101 a = 119, b = 138 --------------
# --------------- Case:  24 ctrl = 001 a = 139, b =  55 --------------
# a | b = 10111111, y = 10111111
# --------------- Case:  25 ctrl = 001 a = 176, b = 110 --------------
# a | b = 11111110, y = 11111110
# --------------- Case:  26 ctrl = 111 a =  51, b =  93 --------------
# --------------- Case:  27 ctrl = 101 a =  36, b = 249 --------------
# --------------- Case:  28 ctrl = 101 a =   2, b = 232 --------------
# --------------- Case:  29 ctrl = 000 a =  42, b =  18 --------------
# a & b = 00000010, y = 00000010
# --------------- Case:  30 ctrl = 000 a = 159, b =  45 --------------
# a & b = 00001101, y = 00001101
# --------------- Case:  31 ctrl = 110 a = 123, b = 159 --------------
# a - b = 11011100, y = 11011100
# --------------- Case:  32 ctrl = 101 a = 123, b =  48 --------------
# --------------- Case:  33 ctrl = 011 a = 130, b =  36 --------------
# --------------- Case:  34 ctrl = 001 a = 120, b = 170 --------------
# a | b = 11111010, y = 11111010
# --------------- Case:  35 ctrl = 110 a = 232, b = 199 --------------
# a - b = 00100001, y = 00100001
# --------------- Case:  36 ctrl = 100 a = 130, b = 120 --------------
# --------------- Case:  37 ctrl = 011 a = 161, b = 101 --------------
# --------------- Case:  38 ctrl = 001 a = 200, b =  82 --------------
# a | b = 11011010, y = 11011010
# --------------- Case:  39 ctrl = 000 a = 171, b = 103 --------------
# a & b = 00100011, y = 00100011
# --------------- Case:  40 ctrl = 100 a = 246, b = 109 --------------
# --------------- Case:  41 ctrl = 010 a = 135, b =  73 --------------
# a + b = 11010000, y = 11010000
# --------------- Case:  42 ctrl = 010 a =  41, b = 116 --------------
# a + b = 10011101, y = 10011101
# --------------- Case:  43 ctrl = 111 a = 218, b =  30 --------------
# --------------- Case:  44 ctrl = 111 a =  32, b = 212 --------------
# --------------- Case:  45 ctrl = 001 a = 103, b = 110 --------------
# a | b = 01101111, y = 01101111
# --------------- Case:  46 ctrl = 111 a =  58, b = 134 --------------
# --------------- Case:  47 ctrl = 000 a =  22, b =  28 --------------
# a & b = 00010100, y = 00010100
# --------------- Case:  48 ctrl = 000 a = 192, b = 132 --------------
# a & b = 10000000, y = 10000000
# --------------- Case:  49 ctrl = 110 a =  18, b =  14 --------------
# a - b = 00000100, y = 00000100
# --------------- Case:  50 ctrl = 010 a =  41, b = 185 --------------
# a + b = 11100010, y = 11100010
# --------------- Case:  51 ctrl = 101 a = 204, b = 233 --------------
# --------------- Case:  52 ctrl = 000 a = 178, b =  87 --------------
# a & b = 00010010, y = 00010010
# --------------- Case:  53 ctrl = 111 a = 127, b = 185 --------------
# --------------- Case:  54 ctrl = 101 a =  68, b = 186 --------------
# --------------- Case:  55 ctrl = 010 a =  71, b = 139 --------------
# a + b = 11010010, y = 11010010
# --------------- Case:  56 ctrl = 101 a = 242, b =  39 --------------
# --------------- Case:  57 ctrl = 110 a = 135, b =  77 --------------
# a - b = 00111010, y = 00111010
# --------------- Case:  58 ctrl = 001 a = 110, b = 135 --------------
# a | b = 11101111, y = 11101111
# --------------- Case:  59 ctrl = 110 a = 163, b =  15 --------------
# a - b = 10010100, y = 10010100
# Negative flag is mismatched
# Exp:0
# Act:1
# ** Note: $finish    : ../tb/test_bench.v(111)
#    Time: 1200 ns  Iteration: 0  Instance: /test_bench
# End time: 13:54:55 on Jun 14,2025, Elapsed time: 0:00:00
# Errors: 0, Warnings: 0
